;	STMicroelectronics Project file

[Version]
Keyword=ST7Project
Number=1.3

[Project]
Name=04_tune
Toolset=ST Assembler Linker

[Config]
0=Config.0
1=Config.1

[Config.0]
ConfigName=Debug
Target=04_tune.hex
OutputFolder=Debug
Debug=$(TargetFName)

[Config.1]
ConfigName=Release
Target=04_tune.s19
OutputFolder=Release
Debug=$(TargetFName)

[Root]
ElemType=Project
PathName=04_tune
Child=Root.Source Files
Config.0=Root.Config.0
Config.1=Root.Config.1

[Root.Config.0]
Settings.0.0=Root.Config.0.Settings.0
Settings.0.1=Root.Config.0.Settings.1
Settings.0.2=Root.Config.0.Settings.2
Settings.0.3=Root.Config.0.Settings.3
Settings.0.4=Root.Config.0.Settings.4
Settings.0.5=Root.Config.0.Settings.5
Settings.0.6=Root.Config.0.Settings.6
Settings.0.7=Root.Config.0.Settings.7

[Root.Config.1]
Settings.1.0=Root.Config.1.Settings.0
Settings.1.1=Root.Config.1.Settings.1
Settings.1.2=Root.Config.1.Settings.2
Settings.1.3=Root.Config.1.Settings.3
Settings.1.4=Root.Config.1.Settings.4
Settings.1.5=Root.Config.1.Settings.5
Settings.1.6=Root.Config.1.Settings.6
Settings.1.7=Root.Config.1.Settings.7

[Root.Config.0.Settings.0]
String.6.0=2020,1,1,16,16,50
String.100.0=ST Assembler Linker
String.100.1=ST7 Cosmic
String.100.2=STM8 Cosmic
String.100.3=ST7 Metrowerks V1.1
String.100.4=Raisonance
String.101.0=ST Assembler Linker
String.102.0=C:\Program Files\STMicroelectronics\st_toolset\asm
String.103.0=
String.104.0=include
String.105.0=
String.106.0=Debug
String.107.0=04_tune.hex
Int.108=0

[Root.Config.0.Settings.1]
String.6.0=2020,1,1,16,14,42
String.100.0=$(TargetFName)
String.101.0=
String.103.0=.\;

[Root.Config.0.Settings.2]
String.2.0=
String.6.0=2020,1,1,16,14,42
String.100.0=STM8S103F3P

[Root.Config.0.Settings.3]
String.2.0=Assembling $(InputFile)...
String.3.0=asm -sym -li=$(IntermPath)$(InputName).lsr $(InputFile) $(ToolsetIncOpts) -obj=$(IntermPath)$(InputName).$(ObjectExt)
String.4.0=$(IntermPath)$(InputName).$(ObjectExt)
String.5.0=$(InputName).lst
String.6.0=2020,1,1,16,14,42
String.100.0=abslist $(IntermPath)$(InputName).lsr -exe $(OutputPath)$(TargetFName)

[Root.Config.0.Settings.4]
String.2.0=Running Pre-Link step
String.6.0=2020,1,1,16,14,42
String.8.0=

[Root.Config.0.Settings.5]
String.2.0=Running ST linker
String.3.0=lyn $(ObjectFiles), $(OutputPath)$(TargetSName).cod, ; 
String.3.1=obsend $(OutputPath)$(TargetSName).cod,-destType,$(OutputPath)$(TargetSName)-out04_tune.hex .hex,i
String.4.0=$(OutputPath)$(TargetFName)
String.5.0=$(OutputPath)$(TargetSName).map $(OutputPath)$(TargetSName).cod $(OutputPath)$(TargetSName).grp $(OutputPath)$(TargetSName).sym
String.6.0=2020,1,1,16,16,50
String.100.0=ram0:0x0-0xff
String.100.1=ram1:0x100-0x1ff
String.100.2=stack:0x200-0x3ff
String.100.3=eeprom:0x4000-0x427f
String.100.4=rom:0x8080-0x9fff
String.100.5=vectit:0x8000-0x807f
String.101.0=mapping.asm

[Root.Config.0.Settings.6]
String.2.0=Running Post-Link step
String.3.0=abslist $(IntermPath)$(InputName).lsr -exe $(OutputPath)$(TargetFName)
String.4.0=
String.5.0=
String.6.0=2020,1,1,16,14,42

[Root.Config.0.Settings.7]
String.2.0=Running Post-Build step
String.6.0=2020,1,1,16,14,42

[Root.Config.1.Settings.0]
String.6.0=2020,1,1,16,14,42
String.100.0=ST Assembler Linker
String.100.1=ST7 Cosmic
String.100.2=STM8 Cosmic
String.100.3=ST7 Metrowerks V1.1
String.100.4=Raisonance
String.101.0=ST Assembler Linker
String.102.0=C:\Program Files\STMicroelectronics\st_toolset\asm
String.103.0=
String.104.0=include
String.105.0=
String.106.0=Release
String.107.0=04_tune.s19
Int.108=0

[Root.Config.1.Settings.1]
String.6.0=2020,1,1,16,14,42
String.100.0=$(TargetFName)
String.101.0=
String.103.0=.\;

[Root.Config.1.Settings.2]
String.2.0=
String.6.0=2020,1,1,16,14,42
String.100.0=STM8S103F3P

[Root.Config.1.Settings.3]
String.2.0=Assembling $(InputFile)...
String.3.0=asm -sym -li=$(IntermPath)$(InputName).lsr $(InputFile) $(ToolsetIncOpts) -obj=$(IntermPath)$(InputName).$(ObjectExt)
String.4.0=$(IntermPath)$(InputName).$(ObjectExt)
String.5.0=$(InputName).lst
String.6.0=2020,1,1,16,14,42
String.100.0=abslist $(IntermPath)$(InputName).lsr -exe $(OutputPath)$(TargetFName)

[Root.Config.1.Settings.4]
String.2.0=Running Pre-Link step
String.6.0=2020,1,1,16,14,42

[Root.Config.1.Settings.5]
String.2.0=Running ST linker
String.3.0=lyn $(ObjectFiles), $(OutputPath)$(TargetSName).cod, " " 
String.3.1=obsend $(OutputPath)$(TargetSName).cod,f,$(OutputPath)$(TargetSName).s19,s
String.4.0=$(OutputPath)$(TargetFName)
String.5.0=$(OutputPath)$(TargetSName).map $(OutputPath)$(TargetSName).cod $(OutputPath)$(TargetSName).grp $(OutputPath)$(TargetSName).sym
String.6.0=2020,1,1,16,16,50
String.100.0=ram0:0x0-0xff
String.100.1=ram1:0x100-0x1ff
String.100.2=stack:0x200-0x3ff
String.100.3=eeprom:0x4000-0x427f
String.100.4=rom:0x8080-0x9fff
String.100.5=vectit:0x8000-0x807f
String.101.0=mapping.asm

[Root.Config.1.Settings.6]
String.2.0=Running Post-Link step
String.3.0=abslist $(IntermPath)$(InputName).lsr -exe $(OutputPath)$(TargetFName)
String.4.0=
String.5.0=
String.6.0=2020,1,1,16,14,42

[Root.Config.1.Settings.7]
String.2.0=Running Post-Build step
String.6.0=2020,1,1,16,14,42

[Root.Source Files]
ElemType=Folder
PathName=Source Files
Child=Root.Source Files.mapping.asm
Next=Root.Include Files
Config.0=Root.Source Files.Config.0
Config.1=Root.Source Files.Config.1

[Root.Source Files.Config.0]
Settings.0.0=Root.Source Files.Config.0.Settings.0
Settings.0.1=Root.Source Files.Config.0.Settings.1
Settings.0.2=Root.Source Files.Config.0.Settings.2

[Root.Source Files.Config.1]
Settings.1.0=Root.Source Files.Config.1.Settings.0
Settings.1.1=Root.Source Files.Config.1.Settings.1
Settings.1.2=Root.Source Files.Config.1.Settings.2

[Root.Source Files.Config.0.Settings.0]
String.6.0=2020,1,1,16,14,42
String.8.0=Debug
Int.0=0
Int.1=0

[Root.Source Files.Config.0.Settings.1]
String.2.0=Assembling $(InputFile)...
String.3.0=asm -sym -li=$(IntermPath)$(InputName).lsr $(InputFile) $(ToolsetIncOpts) -obj=$(IntermPath)$(InputName).$(ObjectExt)
String.4.0=$(IntermPath)$(InputName).$(ObjectExt)
String.5.0=$(InputName).lst
String.6.0=2020,1,1,16,14,42
String.100.0=abslist $(IntermPath)$(InputName).lsr -exe $(OutputPath)$(TargetFName)

[Root.Source Files.Config.0.Settings.2]
String.2.0=Performing Custom Build on $(InputFile)
String.6.0=2020,1,1,16,14,42

[Root.Source Files.Config.1.Settings.0]
String.6.0=2020,1,1,16,14,42
String.8.0=Release
Int.0=0
Int.1=0

[Root.Source Files.Config.1.Settings.1]
String.2.0=Assembling $(InputFile)...
String.3.0=asm -sym -li=$(IntermPath)$(InputName).lsr $(InputFile) $(ToolsetIncOpts) -obj=$(IntermPath)$(InputName).$(ObjectExt)
String.4.0=$(IntermPath)$(InputName).$(ObjectExt)
String.5.0=$(InputName).lst
String.6.0=2020,1,1,16,14,42
String.100.0=abslist $(IntermPath)$(InputName).lsr -exe $(OutputPath)$(TargetFName)

[Root.Source Files.Config.1.Settings.2]
String.2.0=Performing Custom Build on $(InputFile)
String.6.0=2020,1,1,16,14,42

[Root.Source Files.mapping.asm]
ElemType=File
PathName=mapping.asm
Next=Root.Source Files.i2c.asm

[Root.Source Files.i2c.asm]
ElemType=File
PathName=i2c.asm
Next=Root.Source Files.irq.asm

[Root.Source Files.irq.asm]
ElemType=File
PathName=irq.asm
Next=Root.Source Files.main.asm

[Root.Source Files.main.asm]
ElemType=File
PathName=main.asm
Next=Root.Source Files.rda5807.asm

[Root.Source Files.rda5807.asm]
ElemType=File
PathName=rda5807.asm
Next=Root.Source Files.stm8s103f.asm

[Root.Source Files.stm8s103f.asm]
ElemType=File
PathName=stm8s103f.asm
Next=Root.Source Files.string.asm

[Root.Source Files.string.asm]
ElemType=File
PathName=string.asm
Next=Root.Source Files.uart1.asm

[Root.Source Files.uart1.asm]
ElemType=File
PathName=uart1.asm
Next=Root.Source Files.utils.asm

[Root.Source Files.utils.asm]
ElemType=File
PathName=utils.asm

[Root.Include Files]
ElemType=Folder
PathName=Include Files
Child=Root.Include Files.mapping.inc
Config.0=Root.Include Files.Config.0
Config.1=Root.Include Files.Config.1

[Root.Include Files.Config.0]
Settings.0.0=Root.Include Files.Config.0.Settings.0
Settings.0.1=Root.Include Files.Config.0.Settings.1
Settings.0.2=Root.Include Files.Config.0.Settings.2

[Root.Include Files.Config.1]
Settings.1.0=Root.Include Files.Config.1.Settings.0
Settings.1.1=Root.Include Files.Config.1.Settings.1
Settings.1.2=Root.Include Files.Config.1.Settings.2

[Root.Include Files.Config.0.Settings.0]
String.6.0=2020,1,1,16,14,42
String.8.0=Debug
Int.0=0
Int.1=0

[Root.Include Files.Config.0.Settings.1]
String.2.0=Assembling $(InputFile)...
String.3.0=asm -sym -li=$(IntermPath)$(InputName).lsr $(InputFile) $(ToolsetIncOpts) -obj=$(IntermPath)$(InputName).$(ObjectExt)
String.4.0=$(IntermPath)$(InputName).$(ObjectExt)
String.5.0=$(InputName).lst
String.6.0=2020,1,1,16,14,42
String.100.0=abslist $(IntermPath)$(InputName).lsr -exe $(OutputPath)$(TargetFName)

[Root.Include Files.Config.0.Settings.2]
String.2.0=Performing Custom Build on $(InputFile)
String.6.0=2020,1,1,16,14,42

[Root.Include Files.Config.1.Settings.0]
String.6.0=2020,1,1,16,14,42
String.8.0=Release
Int.0=0
Int.1=0

[Root.Include Files.Config.1.Settings.1]
String.2.0=Assembling $(InputFile)...
String.3.0=asm -sym -li=$(IntermPath)$(InputName).lsr $(InputFile) $(ToolsetIncOpts) -obj=$(IntermPath)$(InputName).$(ObjectExt)
String.4.0=$(IntermPath)$(InputName).$(ObjectExt)
String.5.0=$(InputName).lst
String.6.0=2020,1,1,16,14,42
String.100.0=abslist $(IntermPath)$(InputName).lsr -exe $(OutputPath)$(TargetFName)

[Root.Include Files.Config.1.Settings.2]
String.2.0=Performing Custom Build on $(InputFile)
String.6.0=2020,1,1,16,14,42

[Root.Include Files.mapping.inc]
ElemType=File
PathName=mapping.inc